{
    "name": "App\\Http\\Controllers\\ExcelFolletoController",
    "line": 14,
    "short_desc": "",
    "long_desc": "",
    "hint": null,
    "tags": [],
    "namespace": "App\\Http\\Controllers",
    "file": ".\/app\\Http\\Controllers\\ExcelFolletoController.php",
    "relative_file": null,
    "hash": "b8097d932deeac9d813cf300bd691a8aabdc09cb",
    "parent": "App\\Http\\Controllers\\Controller",
    "modifiers": 0,
    "is_trait": false,
    "is_interface": false,
    "aliases": {
        "Request": "Illuminate\\Http\\Request",
        "Spreadsheet": "PhpOffice\\PhpSpreadsheet\\Spreadsheet",
        "Xlsx": "PhpOffice\\PhpSpreadsheet\\Writer\\Xlsx",
        "Categoria": "App\\Categoria",
        "Actividad": "App\\Actividad",
        "Carbon": "Carbon\\Carbon"
    },
    "errors": [],
    "interfaces": [],
    "traits": [],
    "properties": [],
    "methods": {
        "menu": {
            "name": "menu",
            "line": 21,
            "short_desc": "Muestra la p\u00e1gina de selecci\u00f3n de descargas por categor\u00eda Indesing.",
            "long_desc": "",
            "hint": [
                [
                    "\\Illuminate\\Http\\Response",
                    false
                ]
            ],
            "hint_desc": "",
            "tags": [],
            "modifiers": 1,
            "is_by_ref": "",
            "exceptions": [],
            "errors": [],
            "parameters": []
        },
        "folleto": {
            "name": "folleto",
            "line": 34,
            "short_desc": "Nos crea un excel con los datos de las actividades de la campa\u00f1a en sesi\u00f3n,\neste arhivo sirve para importar las actividades de la campa\u00f1a en InDesing, preparado\naparte y reducir el trabajo de hacer a mano este paso.",
            "long_desc": "@return .csv",
            "hint": null,
            "hint_desc": null,
            "tags": [],
            "modifiers": 1,
            "is_by_ref": "",
            "exceptions": [],
            "errors": [],
            "parameters": {
                "categoria_id": {
                    "name": "categoria_id",
                    "line": 34,
                    "short_desc": null,
                    "long_desc": null,
                    "hint": [
                        [
                            "int",
                            false
                        ]
                    ],
                    "tags": [],
                    "modifiers": "int",
                    "default": null,
                    "variadic": false,
                    "is_by_ref": false
                }
            }
        }
    },
    "constants": []
}