{
    "name": "App\\Http\\Controllers\\MetalicoController",
    "line": 10,
    "short_desc": "",
    "long_desc": "",
    "hint": null,
    "tags": [],
    "namespace": "App\\Http\\Controllers",
    "file": ".\/app\\Http\\Controllers\\MetalicoController.php",
    "relative_file": null,
    "hash": "4293ac37c6b6e810468278a17186b2973baf0918",
    "parent": "App\\Http\\Controllers\\Controller",
    "modifiers": 0,
    "is_trait": false,
    "is_interface": false,
    "aliases": {
        "Metalico": "App\\Metalico",
        "Actividad": "App\\Actividad",
        "Request": "Illuminate\\Http\\Request",
        "MetalicoFormRequest": "App\\Http\\Requests\\MetalicoFormRequest"
    },
    "errors": [],
    "interfaces": [],
    "traits": [],
    "properties": [],
    "methods": {
        "index": {
            "name": "index",
            "line": 17,
            "short_desc": "Muestra todos los met\u00e1licos.",
            "long_desc": "",
            "hint": [
                [
                    "\\Illuminate\\Http\\Response",
                    false
                ]
            ],
            "hint_desc": "",
            "tags": [],
            "modifiers": 1,
            "is_by_ref": "",
            "exceptions": [],
            "errors": [],
            "parameters": []
        },
        "create": {
            "name": "create",
            "line": 36,
            "short_desc": "Muestra el formulario para crear met\u00e1licos.",
            "long_desc": "",
            "hint": [
                [
                    "\\Illuminate\\Http\\Response",
                    false
                ]
            ],
            "hint_desc": "",
            "tags": [],
            "modifiers": 1,
            "is_by_ref": "",
            "exceptions": [],
            "errors": [],
            "parameters": {
                "id": {
                    "name": "id",
                    "line": 36,
                    "short_desc": "Id de la actividad a la cual se agrega el met\u00e1lico",
                    "long_desc": null,
                    "hint": [
                        [
                            "int",
                            false
                        ]
                    ],
                    "tags": [],
                    "modifiers": null,
                    "default": null,
                    "variadic": false,
                    "is_by_ref": false
                }
            }
        },
        "store": {
            "name": "store",
            "line": 47,
            "short_desc": "Guarda un met\u00e1lico nuevo.",
            "long_desc": "",
            "hint": [
                [
                    "\\Illuminate\\Http\\Response",
                    false
                ]
            ],
            "hint_desc": "",
            "tags": [],
            "modifiers": 1,
            "is_by_ref": "",
            "exceptions": [],
            "errors": [],
            "parameters": {
                "request": {
                    "name": "request",
                    "line": 47,
                    "short_desc": "",
                    "long_desc": null,
                    "hint": [
                        [
                            "\\App\\Http\\Requests\\MetalicoFormRequest",
                            false
                        ]
                    ],
                    "tags": [],
                    "modifiers": {
                        "nodeType": "Name_FullyQualified",
                        "parts": [
                            "App",
                            "Http",
                            "Requests",
                            "MetalicoFormRequest"
                        ],
                        "attributes": {
                            "startLine": 47,
                            "endLine": 47
                        }
                    },
                    "default": null,
                    "variadic": false,
                    "is_by_ref": false
                }
            }
        },
        "show": {
            "name": "show",
            "line": 79,
            "short_desc": "Muestra un met\u00e1lico espec\u00edfico.",
            "long_desc": "",
            "hint": [
                [
                    "\\Illuminate\\Http\\Response",
                    false
                ]
            ],
            "hint_desc": "",
            "tags": [],
            "modifiers": 1,
            "is_by_ref": "",
            "exceptions": [],
            "errors": [
                "The \"metalico\" @param tag variable name is wrong (should be \"idActividad\")"
            ],
            "parameters": {
                "idActividad": {
                    "name": "idActividad",
                    "line": 79,
                    "short_desc": null,
                    "long_desc": null,
                    "hint": null,
                    "tags": [],
                    "modifiers": null,
                    "default": null,
                    "variadic": false,
                    "is_by_ref": false
                }
            }
        },
        "edit": {
            "name": "edit",
            "line": 92,
            "short_desc": "Muestra un formulario para editar un met\u00e1lico.",
            "long_desc": "",
            "hint": [
                [
                    "\\Illuminate\\Http\\Response",
                    false
                ]
            ],
            "hint_desc": "",
            "tags": [],
            "modifiers": 1,
            "is_by_ref": "",
            "exceptions": [],
            "errors": [
                "The \"metalico\" @param tag variable name is wrong (should be \"id\")"
            ],
            "parameters": {
                "id": {
                    "name": "id",
                    "line": 92,
                    "short_desc": null,
                    "long_desc": null,
                    "hint": null,
                    "tags": [],
                    "modifiers": null,
                    "default": null,
                    "variadic": false,
                    "is_by_ref": false
                }
            }
        },
        "update": {
            "name": "update",
            "line": 105,
            "short_desc": "Actualiza y guarda un met\u00e1lico.",
            "long_desc": "",
            "hint": [
                [
                    "\\Illuminate\\Http\\Response",
                    false
                ]
            ],
            "hint_desc": "",
            "tags": [],
            "modifiers": 1,
            "is_by_ref": "",
            "exceptions": [],
            "errors": [],
            "parameters": {
                "request": {
                    "name": "request",
                    "line": 105,
                    "short_desc": "",
                    "long_desc": null,
                    "hint": [
                        [
                            "\\Illuminate\\Http\\Request",
                            false
                        ]
                    ],
                    "tags": [],
                    "modifiers": {
                        "nodeType": "Name_FullyQualified",
                        "parts": [
                            "Illuminate",
                            "Http",
                            "Request"
                        ],
                        "attributes": {
                            "startLine": 105,
                            "endLine": 105
                        }
                    },
                    "default": null,
                    "variadic": false,
                    "is_by_ref": false
                },
                "metalico": {
                    "name": "metalico",
                    "line": 105,
                    "short_desc": "",
                    "long_desc": null,
                    "hint": [
                        [
                            "\\App\\Metalico",
                            false
                        ]
                    ],
                    "tags": [],
                    "modifiers": {
                        "nodeType": "Name_FullyQualified",
                        "parts": [
                            "App",
                            "Metalico"
                        ],
                        "attributes": {
                            "startLine": 105,
                            "endLine": 105
                        }
                    },
                    "default": null,
                    "variadic": false,
                    "is_by_ref": false
                }
            }
        },
        "destroy": {
            "name": "destroy",
            "line": 118,
            "short_desc": "Elimina un met\u00e1lico.",
            "long_desc": "",
            "hint": [
                [
                    "\\Illuminate\\Http\\Response",
                    false
                ]
            ],
            "hint_desc": "",
            "tags": [],
            "modifiers": 1,
            "is_by_ref": "",
            "exceptions": [],
            "errors": [
                "The \"metalico\" @param tag variable name is wrong (should be \"id\")"
            ],
            "parameters": {
                "id": {
                    "name": "id",
                    "line": 118,
                    "short_desc": null,
                    "long_desc": null,
                    "hint": null,
                    "tags": [],
                    "modifiers": null,
                    "default": null,
                    "variadic": false,
                    "is_by_ref": false
                }
            }
        },
        "borrar": {
            "name": "borrar",
            "line": 133,
            "short_desc": "Muestra el aviso de eliminaci\u00f3n de un met\u00e1lico",
            "long_desc": "",
            "hint": [
                [
                    "\\Illuminate\\Http\\Response",
                    false
                ]
            ],
            "hint_desc": "",
            "tags": [],
            "modifiers": 1,
            "is_by_ref": "",
            "exceptions": [],
            "errors": [],
            "parameters": {
                "id": {
                    "name": "id",
                    "line": 133,
                    "short_desc": "",
                    "long_desc": null,
                    "hint": [
                        [
                            "int",
                            false
                        ]
                    ],
                    "tags": [],
                    "modifiers": null,
                    "default": null,
                    "variadic": false,
                    "is_by_ref": false
                }
            }
        }
    },
    "constants": []
}