{
    "name": "App\\Responsable",
    "line": 7,
    "short_desc": "",
    "long_desc": "",
    "hint": null,
    "tags": [],
    "namespace": "App",
    "file": ".\/app\\Responsable.php",
    "relative_file": null,
    "hash": "9d7f07748d915435129b1d60ef24a6914bef64ce",
    "parent": "Illuminate\\Database\\Eloquent\\Model",
    "modifiers": 0,
    "is_trait": false,
    "is_interface": false,
    "aliases": {
        "Model": "Illuminate\\Database\\Eloquent\\Model"
    },
    "errors": [],
    "interfaces": [],
    "traits": [],
    "properties": {
        "timestamps": {
            "name": "timestamps",
            "line": 14,
            "short_desc": "No mostrar la creacion y actualizaci\u00f3n.",
            "long_desc": "",
            "hint": [
                [
                    "boolean",
                    false
                ]
            ],
            "hint_desc": "",
            "tags": [],
            "modifiers": 1,
            "default": {
                "nodeType": "Expr_ConstFetch",
                "name": {
                    "nodeType": "Name",
                    "parts": [
                        "false"
                    ],
                    "attributes": {
                        "startLine": 14,
                        "endLine": 14,
                        "namespacedName": {
                            "nodeType": "Name_FullyQualified",
                            "parts": [
                                "App",
                                "false"
                            ],
                            "attributes": {
                                "startLine": 14,
                                "endLine": 14
                            }
                        }
                    }
                },
                "attributes": {
                    "startLine": 14,
                    "endLine": 14
                }
            },
            "errors": []
        },
        "fillable": {
            "name": "fillable",
            "line": 20,
            "short_desc": "Los atributos que pueden ser rellenos.",
            "long_desc": "",
            "hint": [
                [
                    "array",
                    false
                ]
            ],
            "hint_desc": "",
            "tags": [],
            "modifiers": 2,
            "default": {
                "nodeType": "Expr_Array",
                "items": [
                    {
                        "nodeType": "Expr_ArrayItem",
                        "key": null,
                        "value": {
                            "nodeType": "Scalar_String",
                            "value": "nombre",
                            "attributes": {
                                "startLine": 21,
                                "endLine": 21,
                                "kind": 1
                            }
                        },
                        "byRef": false,
                        "attributes": {
                            "startLine": 21,
                            "endLine": 21
                        }
                    }
                ],
                "attributes": {
                    "startLine": 20,
                    "endLine": 22,
                    "kind": 2
                }
            },
            "errors": []
        }
    },
    "methods": [],
    "constants": []
}